<svg width="9" height="9" viewBox="0 0 9 9" fill="none" xmlns="http://www.w3.org/2000/svg">
<path id="Vector" d="M4.44999 8.66671C6.75118 8.66671 8.61666 6.80123 8.61666 4.50004C8.61666 2.19885 6.75118 0.333374 4.44999 0.333374C2.14881 0.333374 0.283325 2.19885 0.283325 4.50004C0.283325 6.80123 2.14881 8.66671 4.44999 8.66671Z" fill="#F8FDFE"/>
</svg>
